dplyr and tidyr
…
By carrier and destination? 

```r
tab.02 = cmhflights %>% count(Carrier, Dest, sort = TRUE)
```

How many unique aircraft do we have?

```r
cmhflights %>% summarise(unique.planes = n_distinct(TailNum))
```

```
## # A tibble: 50 x 3
## # Groups:   UniqueCarrier [?]
##    UniqueCarrier Origin unique.planes
##    <chr>         <chr>          <int>
##  1 AA            CMH              188
##  2 AA            DFW              152
##  3 AA            LAX               60
##  4 AA            PHL               17
##  5 AA            PHX               68
##  6 DL            ATL              433
##  7 DL            CMH              538
##  8 DL            DTW                2
##  9 DL            LAX              100
## 10 DL            MCO                2
## # ... with 40 more rows
```
…
